^D:\DOCUMENTS\VISUAL STUDIO 2010\PROJECTS\HELLOCL\HELLOCL\DEBUG\HELLOCL.EXE.INTERMEDIATE.MANIFEST
C:\WINDOWS\GLOBALIZATION\SORTING\SORTDEFAULT.NLS
C:\PROGRAM FILES (X86)\360\360SAFE\SAFEMON\360SAFEMONPRO.TPI
C:\PROGRAM FILES (X86)\360\360SAFE\SAFEMON\WDRES.DLL
C:\PROGRAM FILES (X86)\360\360SAFE\SAFEMON\SEPRO.DLL
C:\PROGRAM FILES (X86)\360\360SAFE\SAFEMON\URLPROC.DLL
C:\PROGRAM FILES (X86)\360\360SAFE\SAFEMON\WDUI2.DLL
C:\PROGRAM FILES (X86)\360\360SAFE\SAFEMON\SOMPROXY.DLL
C:\WINDOWS\MICROSOFT.NET\FRAMEWORK\V2.0.50727\MSCORWKS.DLL
C:\WINDOWS\MICROSOFT.NET\FRAMEWORK\V4.0.30319\CLR.DLL
C:\PROGRAM FILES (X86)\MICROSOFT SDKS\WINDOWS\V7.0A\BIN\MT.EXE.CONFIG
D:\DOCUMENTS\VISUAL STUDIO 2010\PROJECTS\HELLOCL\DEBUG\HELLOCL.EXE
